\BOOKMARK [1][-]{section.1}{Introduction}{}% 1
\BOOKMARK [1][-]{section.2}{Motivation}{}% 2
\BOOKMARK [1][-]{section.3}{Théorie}{}% 3
\BOOKMARK [1][-]{section.4}{Réalisation}{}% 4
\BOOKMARK [1][-]{section.5}{Results}{}% 5
\BOOKMARK [1][-]{section.6}{Conclusion}{}% 6
