\relax 
\providecommand\hyper@newdestlabel[2]{}
\providecommand\HyperFirstAtBeginDocument{\AtBeginDocument}
\HyperFirstAtBeginDocument{\ifx\hyper@anchor\@undefined
\global\let\oldcontentsline\contentsline
\gdef\contentsline#1#2#3#4{\oldcontentsline{#1}{#2}{#3}}
\global\let\oldnewlabel\newlabel
\gdef\newlabel#1#2{\newlabelxx{#1}#2}
\gdef\newlabelxx#1#2#3#4#5#6{\oldnewlabel{#1}{{#2}{#3}}}
\AtEndDocument{\ifx\hyper@anchor\@undefined
\let\contentsline\oldcontentsline
\let\newlabel\oldnewlabel
\fi}
\fi}
\global\let\hyper@last\relax 
\gdef\HyperFirstAtBeginDocument#1{#1}
\providecommand\HyField@AuxAddToFields[1]{}
\providecommand\HyField@AuxAddToCoFields[2]{}
\select@language{english}
\@writefile{toc}{\select@language{english}}
\@writefile{lof}{\select@language{english}}
\@writefile{lot}{\select@language{english}}
\citation{1}
\@writefile{toc}{\contentsline {section}{\numberline {1}\sc  Introduction}{1}{section.1}}
\@writefile{toc}{\contentsline {section}{\numberline {2}\sc  Motivation}{1}{section.2}}
\@writefile{toc}{\contentsline {section}{\numberline {3}\sc  Théorie}{1}{section.3}}
\@writefile{toc}{\contentsline {section}{\numberline {4}\sc  Réalisation}{2}{section.4}}
\@writefile{toc}{\contentsline {section}{\numberline {5}\sc  Results}{2}{section.5}}
\@writefile{toc}{\contentsline {section}{\numberline {6}\sc  Conclusion}{2}{section.6}}
\bibcite{1}{Shai, Ariel}
